^C:\USERS\НИКОЛАЙ\DESKTOP\ДОДЕЛАТЬ\САОД\SAODREP\SAMOST_1_VAR_3\PCH.CPP
C:\USERS\Николай\DESKTOP\Доделать\САОД\SAODREP\SAMOST_1_VAR_3\DEBUG\SAMOST_1_VAR_3.PCH
C:\USERS\Николай\DESKTOP\Доделать\САОД\SAODREP\SAMOST_1_VAR_3\DEBUG\VC141.PDB
C:\USERS\Николай\DESKTOP\Доделать\САОД\SAODREP\SAMOST_1_VAR_3\DEBUG\VC141.IDB
C:\USERS\Николай\DESKTOP\Доделать\САОД\SAODREP\SAMOST_1_VAR_3\DEBUG\PCH.OBJ
^C:\USERS\НИКОЛАЙ\DESKTOP\ДОДЕЛАТЬ\САОД\SAODREP\SAMOST_1_VAR_3\SAMOST_1_VAR_3.CPP
C:\USERS\Николай\DESKTOP\Доделать\САОД\SAODREP\SAMOST_1_VAR_3\DEBUG\VC141.PDB
C:\USERS\Николай\DESKTOP\Доделать\САОД\SAODREP\SAMOST_1_VAR_3\DEBUG\VC141.IDB
C:\USERS\Николай\DESKTOP\Доделать\САОД\SAODREP\SAMOST_1_VAR_3\DEBUG\SAMOST_1_VAR_3.OBJ
