c:\users\николай\desktop\доделать\саод\saodrep\samost_1_var_2\debug\samost_1_var_2.pch
c:\users\николай\desktop\доделать\саод\saodrep\samost_1_var_2\debug\vc141.pdb
c:\users\николай\desktop\доделать\саод\saodrep\samost_1_var_2\debug\vc141.idb
c:\users\николай\desktop\доделать\саод\saodrep\samost_1_var_2\debug\pch.obj
c:\users\николай\desktop\доделать\саод\saodrep\samost_1_var_2\debug\samost_1_var_2.obj
c:\users\николай\desktop\доделать\саод\saodrep\debug\samost_1_var_2.exe
c:\users\николай\desktop\доделать\саод\saodrep\debug\samost_1_var_2.ilk
c:\users\николай\desktop\доделать\саод\saodrep\debug\samost_1_var_2.pdb
c:\users\николай\desktop\доделать\саод\saodrep\samost_1_var_2\debug\samost_1_var_2.tlog\cl.command.1.tlog
c:\users\николай\desktop\доделать\саод\saodrep\samost_1_var_2\debug\samost_1_var_2.tlog\cl.read.1.tlog
c:\users\николай\desktop\доделать\саод\saodrep\samost_1_var_2\debug\samost_1_var_2.tlog\cl.write.1.tlog
c:\users\николай\desktop\доделать\саод\saodrep\samost_1_var_2\debug\samost_1_var_2.tlog\link.command.1.tlog
c:\users\николай\desktop\доделать\саод\saodrep\samost_1_var_2\debug\samost_1_var_2.tlog\link.read.1.tlog
c:\users\николай\desktop\доделать\саод\saodrep\samost_1_var_2\debug\samost_1_var_2.tlog\link.write.1.tlog
