^C:\USERS\НИКОЛАЙ\DESKTOP\ДОДЕЛАТЬ\САОД\SAODREP\SEMINAR_19_10_2018\PCH.CPP
C:\USERS\Николай\DESKTOP\Доделать\САОД\SAODREP\SEMINAR_19_10_2018\DEBUG\SEMINAR_19_10_2018.PCH
C:\USERS\Николай\DESKTOP\Доделать\САОД\SAODREP\SEMINAR_19_10_2018\DEBUG\VC141.PDB
C:\USERS\Николай\DESKTOP\Доделать\САОД\SAODREP\SEMINAR_19_10_2018\DEBUG\VC141.IDB
C:\USERS\Николай\DESKTOP\Доделать\САОД\SAODREP\SEMINAR_19_10_2018\DEBUG\PCH.OBJ
