^C:\USERS\НИКОЛАЙ\DESKTOP\ДОДЕЛАТЬ\САОД\SAODREP\STRINGCOPY\PCH.CPP
C:\USERS\Николай\DESKTOP\Доделать\САОД\SAODREP\STRINGCOPY\DEBUG\2_STRINGCOPY.PCH
C:\USERS\Николай\DESKTOP\Доделать\САОД\SAODREP\STRINGCOPY\DEBUG\VC141.PDB
C:\USERS\Николай\DESKTOP\Доделать\САОД\SAODREP\STRINGCOPY\DEBUG\VC141.IDB
C:\USERS\Николай\DESKTOP\Доделать\САОД\SAODREP\STRINGCOPY\DEBUG\PCH.OBJ
^C:\USERS\НИКОЛАЙ\DESKTOP\ДОДЕЛАТЬ\САОД\SAODREP\STRINGCOPY\STRINGCOPY.CPP
C:\USERS\Николай\DESKTOP\Доделать\САОД\SAODREP\STRINGCOPY\DEBUG\VC141.PDB
C:\USERS\Николай\DESKTOP\Доделать\САОД\SAODREP\STRINGCOPY\DEBUG\VC141.IDB
C:\USERS\Николай\DESKTOP\Доделать\САОД\SAODREP\STRINGCOPY\DEBUG\STRINGCOPY.OBJ
