^C:\USERS\НИКОЛАЙ\DESKTOP\ДОДЕЛАТЬ\САОД\SAODREP\COMPLEX\DEBUG\CLASSCOMPLEX.OBJ|C:\USERS\НИКОЛАЙ\DESKTOP\ДОДЕЛАТЬ\САОД\SAODREP\COMPLEX\DEBUG\COMPLEX.OBJ|C:\USERS\НИКОЛАЙ\DESKTOP\ДОДЕЛАТЬ\САОД\SAODREP\COMPLEX\DEBUG\PCH.OBJ
C:\USERS\Николай\DESKTOP\Доделать\САОД\SAODREP\DEBUG\4_COMPLEX.ILK
C:\USERS\Николай\DESKTOP\Доделать\САОД\SAODREP\DEBUG\4_COMPLEX.EXE
C:\USERS\НИКОЛАЙ\DESKTOP\ДОДЕЛАТЬ\САОД\SAODREP\DEBUG\4_COMPLEX.PDB
